****  Purify instrumented bryan (pid 19190 at Thu Oct 27 13:45:06 1994)
  * Purify 3.0 SunOS 4.1, Copyright 1992-1994 Pure Software Inc.
  * For contact information type: "purify -help"
  * Command-line: bryan tenThirty 
  * Options settings: -logfile=pl.%p -batch -purify -purify \
    -purify-home=/package/pure/purify-3.0-sunos4 
  * PureLA: Purify license expires 09-Nov-1994 04:00:00 AM.
  * Purify licensed to Purify Evaluation User
  * Purify checking enabled.

****  Purify instrumented bryan (pid 19190)  ****
Start batch report.

****  Purify instrumented bryan (pid 19190)  ****
UMR: Uninitialized memory read:
  * This is occurring while in:
	ios::flags(long) [libC.a]
	fstreambase::fstreambase() [libC.a]
	ifstream::ifstream() [libC.a]
	main           [vs_main.c:96]
	start          [crt0.o]
  * Reading 4 bytes from 0xf7fff93c on the stack.
  * Address 0xf7fff93c is 124 bytes past start of local variable "__1source" in function main.

****  Purify instrumented bryan (pid 19190)  ****
UMR: Uninitialized memory read:
  * This is occurring while in:
	ios::init(streambuf*) [libC.a]
	fstreambase::fstreambase() [libC.a]
	ifstream::ifstream() [libC.a]
	main           [vs_main.c:96]
	start          [crt0.o]
  * Reading 2 bytes from 0xf7fff944 on the stack.
  * Address 0xf7fff944 is 132 bytes past start of local variable "__1source" in function main.

****  Purify instrumented bryan (pid 19190)  ****
UMR: Uninitialized memory read:
  * This is occurring while in:
	ios::precision(int) [libC.a]
	fstreambase::fstreambase() [libC.a]
	ifstream::ifstream() [libC.a]
	main           [vs_main.c:96]
	start          [crt0.o]
  * Reading 2 bytes from 0xf7fff940 on the stack.
  * Address 0xf7fff940 is 128 bytes past start of local variable "__1source" in function main.

****  Purify instrumented bryan (pid 19190)  ****
UMR: Uninitialized memory read:
  * This is occurring while in:
	ios::fill(char) [libC.a]
	fstreambase::fstreambase() [libC.a]
	ifstream::ifstream() [libC.a]
	main           [vs_main.c:96]
	start          [crt0.o]
  * Reading 1 byte from 0xf7fff942 on the stack.
  * Address 0xf7fff942 is 130 bytes past start of local variable "__1source" in function main.

****  Purify instrumented bryan (pid 19190)  ****
UMR: Uninitialized memory read:
  * This is occurring while in:
	ios::tie(ostream*) [libC.a]
	fstreambase::fstreambase() [libC.a]
	ifstream::ifstream() [libC.a]
	main           [vs_main.c:96]
	start          [crt0.o]
  * Reading 4 bytes from 0xf7fff938 on the stack.
  * Address 0xf7fff938 is 120 bytes past start of local variable "__1source" in function main.

****  Purify instrumented bryan (pid 19190)  ****
BSR: Beyond stack read error (9 times):
  * This is occurring while in:
	Layout::update() [layout.c:48]
	Layout::AddVertex(const Label&) [layout.c:464]
	main           [vs_main.c:121]
	start          [crt0.o]
  * Reading 4 bytes from 0xf7fff438.
  * Stack pointer 0xf7fff440

****  Purify instrumented bryan (pid 19190)  ****
BSR: Beyond stack read error (4647 times):
  * This is occurring while in:
	Layout::get_an_Out_Component(const Label&) [layout.c:479]
	Layout::ComponentAbsorption() [layout.c:122]
	Search(LayoutStack*) [vs_main.c:62]
	main           [vs_main.c:123]
	start          [crt0.o]
  * Reading 4 bytes from 0xf7fff2e8.
  * Stack pointer 0xf7fff2f0

****  Purify instrumented bryan (pid 19190)  ****
BSR: Beyond stack read error (997 times):
  * This is occurring while in:
	Layout::get_an_Out_Component(const Label&) [layout.c:479]
	Layout::ComponentAbsorption() [layout.c:128]
	Search(LayoutStack*) [vs_main.c:62]
	main           [vs_main.c:123]
	start          [crt0.o]
  * Reading 4 bytes from 0xf7fff2e8.
  * Stack pointer 0xf7fff2f0

****  Purify instrumented bryan (pid 19190)  ****
BSR: Beyond stack read error (2609 times):
  * This is occurring while in:
	Layout::ComponentAbsorption() [layout.c:155]
	Search(LayoutStack*) [vs_main.c:62]
	main           [vs_main.c:123]
	start          [crt0.o]
  * Reading 4 bytes from 0xf7fff388.
  * Stack pointer 0xf7fff390

****  Purify instrumented bryan (pid 19190)  ****
BSR: Beyond stack read error (1235 times):
  * This is occurring while in:
	Layout::ComponentAbsorption() [layout.c:167]
	Search(LayoutStack*) [vs_main.c:62]
	main           [vs_main.c:123]
	start          [crt0.o]
  * Reading 4 bytes from 0xf7fff388.
  * Stack pointer 0xf7fff390

****  Purify instrumented bryan (pid 19190)  ****
BSR: Beyond stack read error (5051 times):
  * This is occurring while in:
	Layout::update() [layout.c:48]
	Layout::absorb(VList&,Array<Label>&,Label) [layout.c:371]
	Layout::ComponentAbsorption() [layout.c:172]
	Search(LayoutStack*) [vs_main.c:62]
	main           [vs_main.c:123]
	start          [crt0.o]
  * Reading 4 bytes from 0xf7fff1f8.
  * Stack pointer 0xf7fff200

****  Purify instrumented bryan (pid 19190)  ****
BSR: Beyond stack read error (47299 times):
  * This is occurring while in:
	Layout::update() [layout.c:48]
	Layout::AddVertex(const Label&) [layout.c:464]
	Search(LayoutStack*) [vs_main.c:76]
	main           [vs_main.c:123]
	start          [crt0.o]
  * Reading 4 bytes from 0xf7fff3b8.
  * Stack pointer 0xf7fff3c0

****  Purify instrumented bryan (pid 19190)  ****
BSR: Beyond stack read error (5528 times):
  * This is occurring while in:
	Layout::vs1(VList&,Array<Label>&) [layout.c:213]
	Layout::ComponentAbsorption() [layout.c:171]
	Search(LayoutStack*) [vs_main.c:62]
	main           [vs_main.c:123]
	start          [crt0.o]
  * Reading 4 bytes from 0xf7fff278.
  * Stack pointer 0xf7fff280

****  Purify instrumented bryan (pid 19190)  ****
BSR: Beyond stack read error (82 times):
  * This is occurring while in:
	Layout::absorb(VList&,Array<Label>&,Label) [layout.c:353]
	Layout::ComponentAbsorption() [layout.c:172]
	Search(LayoutStack*) [vs_main.c:62]
	main           [vs_main.c:123]
	start          [crt0.o]
  * Reading 1 byte from 0xf7fff2e7.
  * Stack pointer 0xf7fff2e8

****  Purify instrumented bryan (pid 19190)  ****
ABR: Array bounds read (1628 times):
  * This is occurring while in:
	operator^(const VList&,const VList&) [vlist.c:60]
	Layout::update() [layout.c:48]
	Layout::absorb(VList&,Array<Label>&,Label) [layout.c:371]
	Layout::ComponentAbsorption() [layout.c:172]
	Search(LayoutStack*) [vs_main.c:62]
	main           [vs_main.c:123]
  * Reading 4 bytes from 0x6a4d0 in the heap.
  * Address 0x6a4d0 is 8 bytes before start of malloc'd block at 0x6a4d8 of 504 bytes.
  * This block was allocated from:
	malloc         [rtlib.o]
	operator new(unsigned int) [libC.a]
	Layout::Layout(const Layout*) [layout.c:377]
	Search(LayoutStack*) [vs_main.c:70]
	main           [vs_main.c:123]
	start          [crt0.o]

****  Purify instrumented bryan (pid 19190)  ****
ABR: Array bounds read (17603 times):
  * This is occurring while in:
	operator^(const VList&,const VList&) [vlist.c:60]
	Layout::update() [layout.c:48]
	Layout::AddVertex(const Label&) [layout.c:464]
	Search(LayoutStack*) [vs_main.c:76]
	main           [vs_main.c:123]
	start          [crt0.o]
  * Reading 4 bytes from 0x717b8 in the heap.
  * Address 0x717b8 is 8 bytes before start of malloc'd block at 0x717c0 of 504 bytes.
  * This block was allocated from:
	malloc         [rtlib.o]
	operator new(unsigned int) [libC.a]
	Layout::Layout(const Layout*) [layout.c:377]
	Search(LayoutStack*) [vs_main.c:70]
	main           [vs_main.c:123]
	start          [crt0.o]

****  Purify instrumented bryan (pid 19190)  ****
ABW: Array bounds write (3 times):
  * This is occurring while in:
	Layout::absorb(VList&,Array<Label>&,Label) [layout.c:357]
	Layout::ComponentAbsorption() [layout.c:172]
	Search(LayoutStack*) [vs_main.c:62]
	main           [vs_main.c:123]
	start          [crt0.o]
  * Writing 1 byte to 0x735f5 in the heap.
  * Address 0x735f5 is 11 bytes before start of malloc'd block at 0x73600 of 504 bytes.
  * This block was allocated from:
	malloc         [rtlib.o]
	operator new(unsigned int) [libC.a]
	Layout::Layout(const Layout*) [layout.c:377]
	Search(LayoutStack*) [vs_main.c:70]
	main           [vs_main.c:123]
	start          [crt0.o]

****  Purify instrumented bryan (pid 19190)  ****
ABR: Array bounds read (3 times):
  * This is occurring while in:
	Layout::absorb(VList&,Array<Label>&,Label) [layout.c:357]
	Layout::ComponentAbsorption() [layout.c:172]
	Search(LayoutStack*) [vs_main.c:62]
	main           [vs_main.c:123]
	start          [crt0.o]
  * Reading 1 byte from 0x735f5 in the heap.
  * Address 0x735f5 is 11 bytes before start of malloc'd block at 0x73600 of 504 bytes.
  * This block was allocated from thread 524288:
	malloc         [rtlib.o]
	operator new(unsigned int) [libC.a]
	Layout::Layout(const Layout*) [layout.c:377]
	Search(LayoutStack*) [vs_main.c:70]
	main           [vs_main.c:123]
	start          [crt0.o]

****  Purify instrumented bryan (pid 19190)  ****
ABR: Array bounds read (1537 times):
  * This is occurring while in:
	operator+(const VList&,const VList&) [vlist.c:66]
	Layout::update() [layout.c:48]
	Layout::AddVertex(const Label&) [layout.c:464]
	Search(LayoutStack*) [vs_main.c:76]
	main           [vs_main.c:123]
	start          [crt0.o]
  * Reading 4 bytes from 0xf9eb4 in the heap.
  * Address 0xf9eb4 is 237 bytes past end of a malloc'd block at 0xf9bd0 of 504 bytes.
  * This block was allocated from:
	malloc         [rtlib.o]
	operator new(unsigned int) [libC.a]
	Layout::Layout(const Layout*) [layout.c:377]
	Search(LayoutStack*) [vs_main.c:70]
	main           [vs_main.c:123]
	start          [crt0.o]

****  Purify instrumented bryan (pid 19190)  ****
FMR: Free memory read (365 times):
  * This is occurring while in:
	operator^(const VList&,const VList&) [vlist.c:60]
	Layout::update() [layout.c:48]
	Layout::AddVertex(const Label&) [layout.c:464]
	Search(LayoutStack*) [vs_main.c:76]
	main           [vs_main.c:123]
	start          [crt0.o]
  * Reading 4 bytes from 0x83dec in the heap.
  * Address 0x83dec is 156 bytes into a freed  block at 0x83d50 of 504 bytes.
  * This block was allocated from:
	malloc         [rtlib.o]
	operator new(unsigned int) [libC.a]
	Layout::Layout(const Layout*) [layout.c:377]
	Search(LayoutStack*) [vs_main.c:70]
	main           [vs_main.c:123]
	start          [crt0.o]
  * There have been 70 frees since this block was freed from:
	free           [rtlib.o]
	operator delete(void*) [libC.a]
	Search(LayoutStack*) [vs_main.c:79]
	main           [vs_main.c:123]
	start          [crt0.o]

****  Purify instrumented bryan (pid 19190)  ****
FMR: Free memory read (362 times):
  * This is occurring while in:
	operator+(const VList&,const VList&) [vlist.c:66]
	Layout::update() [layout.c:48]
	Layout::AddVertex(const Label&) [layout.c:464]
	Search(LayoutStack*) [vs_main.c:76]
	main           [vs_main.c:123]
	start          [crt0.o]
  * Reading 4 bytes from 0x83df4 in the heap.
  * Address 0x83df4 is 164 bytes into a freed  block at 0x83d50 of 504 bytes.
  * This block was allocated from:
	malloc         [rtlib.o]
	operator new(unsigned int) [libC.a]
	Layout::Layout(const Layout*) [layout.c:377]
	Search(LayoutStack*) [vs_main.c:70]
	main           [vs_main.c:123]
	start          [crt0.o]
  * There have been 70 frees since this block was freed from:
	free           [rtlib.o]
	operator delete(void*) [libC.a]
	Search(LayoutStack*) [vs_main.c:79]
	main           [vs_main.c:123]
	start          [crt0.o]

****  Purify instrumented bryan (pid 19190)  ****
MSE: Memory segment error (439 times):
  * This is occurring while in:
	operator^(const VList&,const VList&) [vlist.c:60]
	Layout::update() [layout.c:48]
	Layout::AddVertex(const Label&) [layout.c:464]
	Search(LayoutStack*) [vs_main.c:76]
	main           [vs_main.c:123]
	start          [crt0.o]
  * Accessing a memory range that crosses a memory segment boundary.
    Addressing 0xfd19c for 4 bytes ending at 0xfd1a0,
    which is neither in the heap nor the main stack.

****  Purify instrumented bryan (pid 19190)  ****
MSE: Memory segment error (442 times):
  * This is occurring while in:
	operator+(const VList&,const VList&) [vlist.c:66]
	Layout::update() [layout.c:48]
	Layout::AddVertex(const Label&) [layout.c:464]
	Search(LayoutStack*) [vs_main.c:76]
	main           [vs_main.c:123]
	start          [crt0.o]
  * Accessing a memory range that crosses a memory segment boundary.
    Addressing 0xfd1a4 for 4 bytes ending at 0xfd1a8,
    which is neither in the heap nor the main stack.

****  Purify instrumented bryan (pid 19190)  ****
ABR: Array bounds read (7 times):
  * This is occurring while in:
	operator+(const VList&,const VList&) [vlist.c:66]
	Layout::update() [layout.c:48]
	Layout::absorb(VList&,Array<Label>&,Label) [layout.c:371]
	Layout::ComponentAbsorption() [layout.c:172]
	Search(LayoutStack*) [vs_main.c:62]
	main           [vs_main.c:123]
  * Reading 4 bytes from 0x6eaa4 in the heap.
  * Address 0x6eaa4 is 5 bytes past end of a malloc'd block at 0x6e8a8 of 504 bytes.
  * This block was allocated from:
	malloc         [rtlib.o]
	operator new(unsigned int) [libC.a]
	Layout::Layout(const Layout*) [layout.c:377]
	Search(LayoutStack*) [vs_main.c:70]
	main           [vs_main.c:123]
	start          [crt0.o]

****  Purify instrumented bryan (pid 19190)  ****
ABR: Array bounds read (7 times):
  * This is occurring while in:
	Layout::ComponentAbsorption() [layout.c:149]
	Search(LayoutStack*) [vs_main.c:62]
	main           [vs_main.c:123]
	start          [crt0.o]
  * Reading 4 bytes from 0x6eaa4 in the heap.
  * Address 0x6eaa4 is 5 bytes past end of a malloc'd block at 0x6e8a8 of 504 bytes.
  * This block was allocated from:
	malloc         [rtlib.o]
	operator new(unsigned int) [libC.a]
	Layout::Layout(const Layout*) [layout.c:377]
	Search(LayoutStack*) [vs_main.c:70]
	main           [vs_main.c:123]
	start          [crt0.o]

****  Purify instrumented bryan (pid 19190)  ****
ABR: Array bounds read (7 times):
  * This is occurring while in:
	Layout::ComponentAbsorption() [layout.c:149]
	Search(LayoutStack*) [vs_main.c:62]
	main           [vs_main.c:123]
	start          [crt0.o]
  * Reading 4 bytes from 0x6eaa4 in the heap.
  * Address 0x6eaa4 is 5 bytes past end of a malloc'd block at 0x6e8a8 of 504 bytes.
  * This block was allocated from:
	malloc         [rtlib.o]
	operator new(unsigned int) [libC.a]
	Layout::Layout(const Layout*) [layout.c:377]
	Search(LayoutStack*) [vs_main.c:70]
	main           [vs_main.c:123]
	start          [crt0.o]

****  Purify instrumented bryan (pid 19190)  ****
UMR: Uninitialized memory read (57 times):
  * This is occurring while in:
	Layout::ComponentAbsorption() [layout.c:149]
	Search(LayoutStack*) [vs_main.c:62]
	main           [vs_main.c:123]
	start          [crt0.o]
  * Reading 4 bytes from 0x75464 in the heap (2 bytes at 0x75466 uninit).
  * Address 0x75464 is 84 bytes into a malloc'd block at 0x75410 of 504 bytes.
  * This block was allocated from:
	malloc         [rtlib.o]
	operator new(unsigned int) [libC.a]
	Layout::Layout(const Layout*) [layout.c:377]
	Search(LayoutStack*) [vs_main.c:70]
	main           [vs_main.c:123]
	start          [crt0.o]

****  Purify instrumented bryan (pid 19190)  ****
UMR: Uninitialized memory read (57 times):
  * This is occurring while in:
	Layout::ComponentAbsorption() [layout.c:149]
	Search(LayoutStack*) [vs_main.c:62]
	main           [vs_main.c:123]
	start          [crt0.o]
  * Reading 4 bytes from 0x75464 in the heap (2 bytes at 0x75466 uninit).
  * Address 0x75464 is 84 bytes into a malloc'd block at 0x75410 of 504 bytes.
  * This block was allocated from:
	malloc         [rtlib.o]
	operator new(unsigned int) [libC.a]
	Layout::Layout(const Layout*) [layout.c:377]
	Search(LayoutStack*) [vs_main.c:70]
	main           [vs_main.c:123]
	start          [crt0.o]

****  Purify instrumented bryan (pid 19190)  ****
FMR: Free memory read (5 times):
  * This is occurring while in:
	Layout::ComponentAbsorption() [layout.c:149]
	Search(LayoutStack*) [vs_main.c:62]
	main           [vs_main.c:123]
	start          [crt0.o]
  * Reading 4 bytes from 0xf2bbc in the heap.
  * Address 0xf2bbc is 28 bytes into a freed  block at 0xf2ba0 of 56 bytes.
  * This block was allocated from:
	malloc         [rtlib.o]
	operator new(unsigned int) [libC.a]
	__vec_new      [libC.a]
	Array<VList>::allocate(int) [Array__pt__7_5VList.o]
	Array<VList>::Array<VList>(int) [Array__pt__7_5VList.o]
	Layout::update() [layout.c:31]
  * There have been 26 frees since this block was freed from:
	free           [rtlib.o]
	operator delete(void*) [libC.a]
	Array<VList>::~Array<VList>() [Array__pt__7_5VList.o]
	Layout::update() [layout.c:108]
	Layout::AddVertex(const Label&) [layout.c:464]
	Search(LayoutStack*) [vs_main.c:76]

****  Purify instrumented bryan (pid 19190)  ****
FMR: Free memory read (5 times):
  * This is occurring while in:
	Layout::ComponentAbsorption() [layout.c:149]
	Search(LayoutStack*) [vs_main.c:62]
	main           [vs_main.c:123]
	start          [crt0.o]
  * Reading 4 bytes from 0xf2bbc in the heap.
  * Address 0xf2bbc is 28 bytes into a freed  block at 0xf2ba0 of 56 bytes.
  * This block was allocated from:
	malloc         [rtlib.o]
	operator new(unsigned int) [libC.a]
	__vec_new      [libC.a]
	Array<VList>::allocate(int) [Array__pt__7_5VList.o]
	Array<VList>::Array<VList>(int) [Array__pt__7_5VList.o]
	Layout::update() [layout.c:31]
  * There have been 26 frees since this block was freed from:
	free           [rtlib.o]
	operator delete(void*) [libC.a]
	Array<VList>::~Array<VList>() [Array__pt__7_5VList.o]
	Layout::update() [layout.c:108]
	Layout::AddVertex(const Label&) [layout.c:464]
	Search(LayoutStack*) [vs_main.c:76]

****  Purify instrumented bryan (pid 19190)  ****
FMR: Free memory read:
  * This is occurring while in:
	operator^(const VList&,const VList&) [vlist.c:60]
	Layout::update() [layout.c:48]
	Layout::absorb(VList&,Array<Label>&,Label) [layout.c:371]
	Layout::ComponentAbsorption() [layout.c:172]
	Search(LayoutStack*) [vs_main.c:62]
	main           [vs_main.c:123]
  * Reading 4 bytes from 0xf2bb4 in the heap.
  * Address 0xf2bb4 is 20 bytes into a freed  block at 0xf2ba0 of 56 bytes.
  * This block was allocated from:
	malloc         [rtlib.o]
	operator new(unsigned int) [libC.a]
	__vec_new      [libC.a]
	Array<VList>::allocate(int) [Array__pt__7_5VList.o]
	Array<VList>::Array<VList>(int) [Array__pt__7_5VList.o]
	Layout::update() [layout.c:31]
  * There have been 33 frees since this block was freed from:
	free           [rtlib.o]
	operator delete(void*) [libC.a]
	Array<VList>::~Array<VList>() [Array__pt__7_5VList.o]
	Layout::update() [layout.c:108]
	Layout::AddVertex(const Label&) [layout.c:464]
	Search(LayoutStack*) [vs_main.c:76]

****  Purify instrumented bryan (pid 19190)  ****
FMR: Free memory read:
  * This is occurring while in:
	operator+(const VList&,const VList&) [vlist.c:66]
	Layout::update() [layout.c:48]
	Layout::absorb(VList&,Array<Label>&,Label) [layout.c:371]
	Layout::ComponentAbsorption() [layout.c:172]
	Search(LayoutStack*) [vs_main.c:62]
	main           [vs_main.c:123]
  * Reading 4 bytes from 0xf2bbc in the heap.
  * Address 0xf2bbc is 28 bytes into a freed  block at 0xf2ba0 of 56 bytes.
  * This block was allocated from:
	malloc         [rtlib.o]
	operator new(unsigned int) [libC.a]
	__vec_new      [libC.a]
	Array<VList>::allocate(int) [Array__pt__7_5VList.o]
	Array<VList>::Array<VList>(int) [Array__pt__7_5VList.o]
	Layout::update() [layout.c:31]
  * There have been 33 frees since this block was freed from:
	free           [rtlib.o]
	operator delete(void*) [libC.a]
	Array<VList>::~Array<VList>() [Array__pt__7_5VList.o]
	Layout::update() [layout.c:108]
	Layout::AddVertex(const Label&) [layout.c:464]
	Search(LayoutStack*) [vs_main.c:76]

****  Purify instrumented bryan (pid 19190)  ****
FMR: Free memory read:
  * This is occurring while in:
	operator^(const VList&,const VList&) [vlist.c:60]
	Layout::ComponentAbsorption() [layout.c:155]
	Search(LayoutStack*) [vs_main.c:62]
	main           [vs_main.c:123]
	start          [crt0.o]
  * Reading 4 bytes from 0xf2bbc in the heap.
  * Address 0xf2bbc is 28 bytes into a freed  block at 0xf2ba0 of 56 bytes.
  * This block was allocated from:
	malloc         [rtlib.o]
	operator new(unsigned int) [libC.a]
	__vec_new      [libC.a]
	Array<VList>::allocate(int) [Array__pt__7_5VList.o]
	Array<VList>::Array<VList>(int) [Array__pt__7_5VList.o]
	Layout::update() [layout.c:31]
  * There have been 38 frees since this block was freed from:
	free           [rtlib.o]
	operator delete(void*) [libC.a]
	Array<VList>::~Array<VList>() [Array__pt__7_5VList.o]
	Layout::update() [layout.c:108]
	Layout::AddVertex(const Label&) [layout.c:464]
	Search(LayoutStack*) [vs_main.c:76]

****  Purify instrumented bryan (pid 19190)  ****
ABR: Array bounds read:
  * This is occurring while in:
	operator^(const VList&,const VList&) [vlist.c:60]
	Layout::ComponentAbsorption() [layout.c:155]
	Search(LayoutStack*) [vs_main.c:62]
	main           [vs_main.c:123]
	start          [crt0.o]
  * Reading 4 bytes from 0x17039c in the heap.
  * Address 0x17039c is 4 bytes before start of malloc'd block at 0x1703a0 of 504 bytes.
  * This block was allocated from:
	malloc         [rtlib.o]
	operator new(unsigned int) [libC.a]
	Layout::Layout(const Layout*) [layout.c:377]
	Search(LayoutStack*) [vs_main.c:70]
	main           [vs_main.c:123]
	start          [crt0.o]

****  Purify instrumented bryan (pid 19190)  ****
UMR: Uninitialized memory read:
  * This is occurring while in:
	Layout::ComponentAbsorption() [layout.c:164]
	Search(LayoutStack*) [vs_main.c:62]
	main           [vs_main.c:123]
	start          [crt0.o]
  * Reading 4 bytes from 0xf7fff500 on the stack.
  * Address 0xf7fff500 is local variable "__1j" in function Layout::ComponentAbsorption().

****  Purify instrumented bryan (pid 19190)  ****
MSE: Memory segment error:
  * This is occurring while in:
	Layout::ComponentAbsorption() [layout.c:164]
	Search(LayoutStack*) [vs_main.c:62]
	main           [vs_main.c:123]
	start          [crt0.o]
  * Accessing a memory range that crosses a memory segment boundary.
    Addressing 0xe00b5edc for 4 bytes ending at 0xe00b5ee0,
    which is neither in the heap nor the main stack.

****  Purify instrumented bryan (pid 19190)  ****
COR: Fatal core dump:
  * This is occurring while in:
	Layout::ComponentAbsorption() [layout.c:164]
	Search(LayoutStack*) [vs_main.c:62]
	main           [vs_main.c:123]
	start          [crt0.o]
  * Received signal 11 SIGSEGV (Segmentation fault)
  * Signal bit = 0x00000400
  * Handler function: SIG_DFL
  * Faulting address = 0xe00b5edc
  * Signal mask: (SIGSEGV) 
  * Pending signals: 

****  Purify instrumented bryan (pid 19190)  ****
End batch report.
